Making a Map in R
…
So we’ve read this data in as a dataframe. R doesn’t know that it has spatial data yet! We need to convert this dataframe to a spatial object using the st_as_sf function.

site_sf <- st_as_sf(site_df, 
                    coords = c("Longitude", "Latitude"))

site_sf

Simple feature collection with 31 features and 5 fields
Geometry type: POINT
Dimension:     XY
Bounding box:  xmin: -79.4528 ymin: 43.2247 xmax: -76.51833 ymax: 43.9497
CRS:           NA
# A tibble: 31 × 6
    Site    TN    TP   DOC Chl_A           geometry
   <dbl> <dbl> <dbl> <dbl> <dbl>            <POINT>
 1     8   640  7.36  2.44  2.22 (-79.4528 43.6231)
 2     9   555  7.67  2.44  2.48  (-79.395 43.5867)
 3    12   465  4.39  2.38  2.53 (-79.3531 43.5033)
 4    19   475  6.63  2.49  3.36 (-79.2853 43.3836)
 5    18   505  4.38  2.42  1.78 (-79.2781 43.3036)
 6    17   492  4.67  2.44  0.55 (-79.2719 43.2247)
 7    29   521  3.71  2.28  0.79   (-78.87 43.8183)
 8    28   506  4.57  2.45  1.33  (-78.8533 43.775)
 9    27   501  6.09  2.35  2.52     (-78.83 43.69)
10    33   473  6.64  2.51  3.44 (-78.8144 43.5964)
# ℹ 21 more rows

Now we have another simple feature collection. This time it’s a POINT collection, with 31 features (points) with 5 fields (attributes). You’ll notive it looks like a dataframe, and has the same columns as our dataframe, but there is a special column called geometry that contains the coordinates of each feature. We also see that there is no CRS. R has no idea what reference system these coordinates are actually in, because we never told it. We can set the CRS using st_set_crs function. In this case, we’ll use EPSG:4326, which is the WGS84 angular coordinate system usually reported by GPS.

site_sf_crs <- st_set_crs(site_sf,
                          "EPSG:4326")

site_sf_crs

Simple feature collection with 31 features and 5 fields
Geometry type: POINT
Dimension:     XY
Bounding box:  xmin: -79.4528 ymin: 43.2247 xmax: -76.51833 ymax: 43.9497
Geodetic CRS:  WGS 84
# A tibble: 31 × 6
    Site    TN    TP   DOC Chl_A           geometry
 * <dbl> <dbl> <dbl> <dbl> <dbl>        <POINT [°]>
 1     8   640  7.36  2.44  2.22 (-79.4528 43.6231)
 2     9   555  7.67  2.44  2.48  (-79.395 43.5867)
 3    12   465  4.39  2.38  2.53 (-79.3531 43.5033)
 4    19   475  6.63  2.49  3.36 (-79.2853 43.3836)
 5    18   505  4.38  2.42  1.78 (-79.2781 43.3036)
 6    17   492  4.67  2.44  0.55 (-79.2719 43.2247)
 7    29   521  3.71  2.28  0.79   (-78.87 43.8183)
 8    28   506  4.57  2.45  1.33  (-78.8533 43.775)
 9    27   501  6.09  2.35  2.52     (-78.83 43.69)
10    33   473  6.64  2.51  3.44 (-78.8144 43.5964)
# ℹ 21 more rows

Finally, let’s project our data to the same Great Lakes projection that we used for our outline and bathymetry.

proj_site_sf <- st_transform(site_sf_crs,
                             crs = "EPSG:3174")
  
proj_site_sf

Simple feature collection with 31 features and 5 fields
Geometry type: POINT
Dimension:     XY
Bounding box:  xmin: 1403076 ymin: 752678.1 xmax: 1639774 ymax: 840212.1
Projected CRS: NAD83 / Great Lakes Albers
# A tibble: 31 × 6
    Site    TN    TP   DOC Chl_A           geometry
 * <dbl> <dbl> <dbl> <dbl> <dbl>        <POINT [m]>
 1     8   640  7.36  2.44  2.22 (1403076 795972.1)
 2     9   555  7.67  2.44  2.48 (1407981 792222.7)
 3    12   465  4.39  2.38  2.53 (1411943 783178.3)
 4    19   475  6.63  2.49  3.36 (1418265 770242.5)
 5    18   505  4.38  2.42  1.78 (1419419 761401.5)
 6    17   492  4.67  2.44  0.55 (1420486 752678.1)
 7    29   521  3.71  2.28  0.79 (1448449 820727.2)
 8    28   506  4.57  2.45  1.33   (1450124 816015)
 9    27   501  6.09  2.35  2.52   (1452654 806713)
10    33   473  6.64  2.51  3.44 (1454637 796414.7)
# ℹ 21 more rows
…
